<svg height="16.02" version="1.1" viewBox="0 0 16 16.024" xmlns="http://www.w3.org/2000/svg">
<g transform="rotate(-90,8,8.027)" fill="#bebebe">
<path d="m5.5 0.375c-3.202 1.059-5.5 4.102-5.5 7.625 0 4.39 3.58 8.03 8 8.03s8-3.642 8-8.03c0-3.522-2.299-6.565-5.5-7.625v2.156c2.042 0.962 3.5 3.03 3.5 5.469 0 3.367-2.69 6.06-6 6.06s-6-2.695-6-6.06c0-2.459 1.444-4.548 3.5-5.5z" color="#000000"/>
<rect transform="scale(-1,1)" x="-9" y=".024" width="2" height="8" rx=".837" ry="0"/>
</g>
</svg>
