<svg width="64" height="64" version="1.1" viewBox="0 0 64 64" xmlns="http://www.w3.org/2000/svg">
<path d="m4.7422 64h54.516c4.7422 0 4.7422 0 4.7422-4.5703v-39.43l-32-20-32 20v39.43c0 4.5703 0 4.5703 4.7422 4.5703z" fill="#268bd2"/>
<g>
<path d="m4.7422 64h54.516c4.7422 0 4.7422 0 4.7422-4.5703v-39.43l-32-20-32 20v39.43c0 4.5703 0 4.5703 4.7422 4.5703z" fill="#5291bd"/>
<path d="m14.763 23.652c0 0.45096 0.40086 1.1024 1.2026 1.9041l12.827 16.034c3.2194 3.2194 3.2069 3.2069 6.4137 0l12.827-16.034c2.4051-2.4051 1.2026-3.0565-3.6077-3.2069-1.6034-0.0501-3.6077 0-6.0129 0v-0.10021c0-15.934-9.6206-22.348-22.548-22.248 6.5139 6.3135 9.7208 12.727 9.5204 22.348-2.2987-0.0031-4.2622-0.04697-5.8124 0-3.2069 0.10022-4.8103 0.40086-4.8103 1.3028z" fill="#ffee3a" fill-rule="evenodd"/>
<g fill="#2fa8ee">
<path d="m4 64h56c4 0 4 0 4-4v-36l-64 36c0 4 0 4 4 4z"/>
<path d="m60 64h-56c-4 0-4 0-4-4v-36l64 36c0 4 0 4-4 4z"/>
</g>
<path d="m59.258 64h-54.516c-4.7422 0-4.7422 0-4.7422-4.4922v-35.508l64 35.508c0 4.4922 0 4.4922-4.7422 4.4922z" fill="#60c0f0"/>
</g>
</svg>
