<svg width="22" height="22" version="1.1" viewBox="0 0 22 22" xmlns="http://www.w3.org/2000/svg">
<path d="m4.0001 3v3h9c0.71359 0 0.88065 0.35499 1 1v2h-8c-1.5321-1e-6 -2.8927 0.44336-3.75 1.4375s-1.2606 2.2437-1.25 3.4688c0.01 1.2251 0.45864 2.454 1.3125 3.4375 0.85386 0.98352 2.1737 1.6562 3.6875 1.6562h15v-11.906c0-2.7784-2-4.0938-5-4.0938h-12zm5.0938 9h4.9063v4h-4.9063c-1.02 0-2.0312 0-2.0312-2s1.0113-2 2.0312-2z" fill="#839496"/>
</svg>
