<svg version="1.1" viewBox="0 0 22 22" xmlns="http://www.w3.org/2000/svg">
<g transform="matrix(1,0,0,-1,0,24)" fill="#839496">
<path d="m11 6c-0.306 0-0.596 0.13-0.813 0.344l-3.844 3.719c-0.213 0.202-0.335 0.489-0.344 0.781-0.015 0.465 0.249 0.881 0.688 1.063 0.438 0.181 0.951 0.083 1.281-0.25l2.031-1.969v12.313h2v-12.313l2.031 1.969c0.45 0.438 1.175 0.438 1.625 0s0.45-1.155 0-1.594l-3.844-3.719c-0.216-0.213-0.506-0.344-0.813-0.344z"/>
<rect transform="scale(1,-1)" x="6" y="-5" width="10" height="2" rx="1" fill-opacity=".90196" style="paint-order:markers stroke fill"/>
</g>
</svg>
