<svg version="1.1" viewBox="0 0 22 22" xmlns="http://www.w3.org/2000/svg">
<path d="m2 22v-22h18v22" fill="#839496"/>
<path d="m13.997 15.289c0.478-1.697 0.489-4.047-0.364-5.207-0.359-0.55-0.848-1.273-0.465-1.931 0.709-1.027 1.892-1.58 2.968-2.14 0.366-0.037 0.234-0.376 0.258-0.626 1e-3 -0.199 0.06-0.458-0.232-0.365h-4.749-0.826-4.749c-0.292-0.093-0.233 0.167-0.232 0.365 0.024 0.25-0.108 0.589 0.258 0.626 1.077 0.559 2.259 1.113 2.968 2.14 0.384 0.658-0.106 1.381-0.465 1.931-0.902 1.262-1.019 4.01-0.361 5.245 0.594 1.073 1.194 1.632 2.994 1.673 1.803-0.073 2.4-0.6 2.997-1.711z" color="#bebebe" fill="#fff" fill-opacity=".902"/>
</svg>
