<svg width="22" height="22" version="1.1" viewBox="0 0 22 22" xmlns="http://www.w3.org/2000/svg">
<path d="m21 11c0 5.522-4.478 10-10 10-5.522 0-10-4.478-10-10 0-5.522 4.478-10 10-10 5.522 0 10 4.478 10 10z" fill="#839496" fill-rule="evenodd"/>
<g transform="translate(0 1)" fill="#fff" fill-opacity=".902">
<path d="m13 16h-4v-6h4v6"/>
<path d="m13 6c0 1.1023-0.89773 2-2 2s-2-0.89773-2-2 0.89773-2 2-2 2 0.89773 2 2z" fill-rule="evenodd"/>
</g>
</svg>
