<svg version="1.1" viewBox="0 0 22 22" xmlns="http://www.w3.org/2000/svg">
<path d="m12.5 0.25c-0.777 0-1.555 0.2-2.25 0.602-1.391 0.803-2.25 2.292-2.25 3.898v0.5 0.5 7.25 0.5 0.5c0 1.07 0.573 2.062 1.5 2.598 0.927 0.535 2.073 0.535 3 0s1.5-1.527 1.5-2.598v-0.5-0.5-5.5c0-0.277-0.223-0.5-0.5-0.5h-1c-0.277 0-0.5 0.223-0.5 0.5v5.5 0.5 0.5c0 0.359-0.189 0.688-0.5 0.867s-0.689 0.179-1 0-0.5-0.508-0.5-0.867v-0.5-0.5-7.25-0.5-0.5c0-0.895 0.475-1.719 1.25-2.166s1.725-0.447 2.5 0 1.25 1.271 1.25 2.166v0.5 0.5 9 0.5 0.5c0 1.431-0.761 2.749-2 3.465-1.239 0.715-2.761 0.715-4 0s-2-2.034-2-3.465v-0.5-0.5-8.25c0-0.277-0.223-0.5-0.5-0.5h-1c-0.277 0-0.5 0.223-0.5 0.5v8.25 0.5 0.5c0 2.142 1.145 4.126 3 5.197s4.145 1.071 6 0 3-3.055 3-5.197v-0.5-0.5-9-0.5-0.5c0-1.606-0.859-3.095-2.25-3.898-0.695-0.402-1.473-0.602-2.25-0.602" fill="#839496"/>
</svg>
