<svg width="22" height="22" version="1.1" viewBox="0 0 22 22" xmlns="http://www.w3.org/2000/svg">
<path d="m13 2c-4.9706 0-9 4.0294-9 9h2c0-3.866 3.134-7 7-7s7 3.134 7 7c0 3.866-3.134 7-7 7v2c4.9706 0 9-4.0294 9-9 0-4.9706-4.0294-9-9-9z" fill="#839496" fill-rule="evenodd"/>
<path d="m0 11h10l-5 5z" fill="#839496"/>
</svg>
