<svg width="22" height="22" version="1.1" viewBox="0 0 22 22" xmlns="http://www.w3.org/2000/svg">
<path d="m22 10-18-10v10z" fill="#839496"/>
<path d="m14 8-8-4v4z" fill="#fff" fill-opacity=".902"/>
<path d="m22 12-18 10v-10z" fill="#839496"/>
<path d="m14 14-8 4v-4z" fill="#fff" fill-opacity=".902"/>
<path d="m2 0v10h-2v-10z" fill="#839496"/>
<path d="m2 12v10h-2v-10z" fill="#839496"/>
</svg>
