<svg enable-background="new 0 0 512 512" version="1.1" viewBox="0 0 16 16" xmlns="http://www.w3.org/2000/svg">
<g fill="#839496">
<g>
<rect x="1" y="7" width="10" height="8" rx="1.5"/>
<circle cx="3.5" cy="4" r="1.5"/>
<circle cx="8.5" cy="3.5" r="2"/>
</g>
<path d="m12 8.5v5l3 2v-9z" fill-rule="evenodd"/>
</g>
</svg>
