<svg version="1.1" viewBox="0 0 16 16" xmlns="http://www.w3.org/2000/svg">
<g fill="#839496" stroke-width=".49994">
<path d="m2.75 8.765e-4c-0.0605 0.0099976-0.119 0.031492-0.172 0.062485l-2.344 1.4527c-0.142 0.088979-0.234 0.25394-0.2345 0.4219v13.077c0 0.26194 0.238 0.49988 0.5 0.49988h1.844c8e-3 0.25644 0.2435 0.48438 0.5 0.48438h10.312c0.2565 0 0.492-0.22794 0.5-0.48438h1.844c0.262 0 0.5-0.23794 0.5-0.49988v-13.077c-5e-4 -0.16796-0.092-0.33242-0.2345-0.4219l-2.344-1.4527c-0.0805-0.044989-0.1735-0.066484-0.2655-0.062485h-10.312c-0.031-0.0049988-0.0625-0.0049988-0.094 0m0.25 0.99976h10.5l1.5 0.99976v12.497h-1.5v-4.9988h-11v4.9988h-1.5v-12.497zm0 10.497h10v0.49988h-10zm0 1.9995h10v0.49988h-10z" color="#000000"/>
<path d="m7.25 0.49966h-1.75v1.4996h7v-1.4996z"/>
<path d="m3 8.4977v-3.4992h7v3.4992z"/>
<path d="m11 4.9986v3.4992h2v-3.4992z"/>
</g>
</svg>
