<svg version="1.1" viewBox="0 0 16 16" xmlns="http://www.w3.org/2000/svg">
<g fill="#839496" stroke-width=".50001">
<path d="m3.2814 0c-0.73001 0-1.328 0.598-1.328 1.328v13.328c0 0.73 0.59801 1.344 1.328 1.344h9.4377c0.73002 0 1.328-0.6135 1.328-1.344v-13.328c0-0.73-0.59801-1.328-1.328-1.328zm0 1h9.4377c0.1935 0 0.28101 0.135 0.28101 0.328v12.312c0 0.1935-0.088 0.344-0.28101 0.344h-9.4377c-0.1935 0-0.28101-0.1505-0.28101-0.344v-12.312c0-0.1935 0.088002-0.328 0.28101-0.328zm9.2192 13.5c0.27601 0 0.50001 0.224 0.50001 0.5s-0.224 0.5-0.50001 0.5-0.50001-0.224-0.50001-0.5 0.224-0.5 0.50001-0.5z" color="#000000"/>
<path d="m2.4999 9h11l-0.0225 1h-10.944z"/>
<path d="m4.9999 13h6.0001v-9l-1-1h-5.0001zm1-4h4.0001v3h-4.0001z" color="#000000"/>
</g>
</svg>
