<svg version="1.1" viewBox="0 0 16 16" xmlns="http://www.w3.org/2000/svg">
<path d="m4 0c-0.554 0-1 0.446-1 1v14c0 0.554 0.446 1 1 1h8c0.554 0 1-0.446 1-1v-14c0-0.554-0.446-1-1-1h-8zm1 2h6v11h-6v-11z" fill="#839496"/>
</svg>
