<svg version="1.1" viewBox="0 0 24 24" xmlns="http://www.w3.org/2000/svg">
<path d="m21 13a9 9 0 0 1-18 0 9 9 0 1 1 18 0z" fill="#fff" fill-rule="evenodd"/>
<path d="m11.984 6.484c-0.551 8e-3 -0.992 0.465-0.984 1.016v5.5c0 0.234 0.082 0.461 0.234 0.641l2.5 3c0.223 0.301 0.59 0.449 0.957 0.395 0.367-0.059 0.672-0.313 0.793-0.664 0.121-0.352 0.035-0.742-0.219-1.012l-2.266-2.719v-5.141c4e-3 -0.27-0.102-0.531-0.293-0.723-0.191-0.191-0.453-0.297-0.723-0.293z" fill="#268bd2"/>
<g fill="#839496">
<path d="m12 3c-5.512 0-10 4.488-10 10s4.488 10 10 10 10-4.488 10-10-4.488-10-10-10m0 2c4.43 0 8 3.57 8 8s-3.57 8-8 8-8-3.57-8-8 3.57-8 8-8"/>
<g>
<path d="m2.808 5.222c-0.392 0.392-0.392 1.022 0 1.414l1.414 1.414 3.536-3.536-1.414-1.414c-0.392-0.392-1.022-0.392-1.414 0z"/>
<rect x="10" y="1" width="4" height="3" rx="1"/>
<path d="m21.19 5.222c0.392 0.392 0.392 1.022 0 1.414l-1.414 1.414-3.536-3.536 1.414-1.414c0.392-0.392 1.022-0.392 1.414 0z"/>
</g>
</g>
</svg>
