<svg width="24" height="24" version="1.1" viewBox="0 0 24 24" xmlns="http://www.w3.org/2000/svg">
<path d="m7.0049 4.8525c-0.79722 2.829-0.8156 6.7457 0.60706 8.6777 0.59796 0.91642 1.4139 2.1216 0.77436 3.2184-1.1822 1.7111-3.1529 2.6341-4.9473 3.5663-0.60957 0.06235-0.38938 0.62719-0.4302 1.0438-9.774e-4 0.33131-0.099723 0.76402 0.38718 0.60888h7.9157 1.3766 7.9157c0.4869 0.15514 0.38816-0.27757 0.38718-0.60888-0.04083-0.4166 0.17938-0.98144-0.4302-1.0438-1.7944-0.93221-3.7651-1.8552-4.9473-3.5663-0.63952-1.0968 0.1764-2.3019 0.77436-3.2184 1.5029-2.1031 1.6983-6.6789 0.60228-8.7418-0.9903-1.7884-1.9903-2.7197-4.9903-2.7884-3.0048 0.12084-4 1-4.9951 2.8525z" color="#bebebe" fill="#839496"/>
<path d="m22 14h-4v-4h-4v4h-4v4h4v4h4v-4h4z" fill="#859900"/>
</svg>
