<svg width="24" height="24" version="1.1" viewBox="0 0 24 24" xmlns="http://www.w3.org/2000/svg">
<path d="m8.974 19.73c-0.81-0.34-1.52-0.73-2.12-1.17-5.9096-4.64-1.88-11.56 5.136-11.56v-4l8 6-8 7v-4c-6.016 1.01-6.036 1.92-3.026 6.99 0 0 1 1.01 0 0.74z" color="#bebebe" fill="#839496"/>
</svg>
