<svg width="24" height="24" version="1.1" viewBox="0 0 24 24" xmlns="http://www.w3.org/2000/svg">
<g fill="#839496">
<path d="m6 4v3h9c0.61166 0 1 1.3826 1 2h3c0-2.6149-1.7426-5-4.1429-5z" color="#000000"/>
<path d="m5 16c0 2 0.24133 2.5243 0.97321 3.45s1.7292 1.55 3.0268 1.55h10v-5h-3v2h-7c-0.56839 0-0.66701-0.37566-0.88393-0.65s-0.11253-0.90299-0.11607-1.35z" color="#000000"/>
<path d="m2 11v3h20v-3z" color="#000000"/>
</g>
</svg>
