<svg version="1.1" viewBox="0 0 24 24" xmlns="http://www.w3.org/2000/svg">
<rect x="3.5" y="3.5" width="17" height="17" fill="#fff"/>
<path d="m3.5371 2.9902c-0.293 0.029-0.53911 0.30461-0.53711 0.59961v16.813c0 0.314 0.28461 0.59961 0.59961 0.59961h10.4v-1.002h-2v-0.01758h-8v-13.992h16v8.0098h1.002v-10.41c0-0.314-0.28656-0.59961-0.60156-0.59961zm15.963 1c0.276 0 0.5 0.224 0.5 0.5s-0.224 0.5-0.5 0.5-0.5-0.224-0.5-0.5 0.224-0.5 0.5-0.5z" fill="#839496"/>
<path d="m23 15h-4v-4.375l-4 0.033v4.342h-4v4h4v4h4v-4h4z" fill="#839496"/>
</svg>
