<svg version="1.1" viewBox="0 0 48 48" xmlns="http://www.w3.org/2000/svg" xmlns:xlink="http://www.w3.org/1999/xlink">
<defs>
<linearGradient id="linearGradient866" x1="1" x2="47" y1="24" y2="24" gradientTransform="rotate(-90 -5.3997 43.817)" gradientUnits="userSpaceOnUse">
<stop stop-color="#dddccd" offset="0"/>
<stop stop-color="#e5e4d9" offset="1"/>
</linearGradient>
</defs>
<path d="m36.31 5c5.859 4.062 9.688 10.831 9.688 18.5 0 12.426-10.07 22.5-22.5 22.5-7.669 0-14.438-3.828-18.5-9.688 1.037 1.822 2.306 3.499 3.781 4.969 4.085 3.712 9.514 5.969 15.469 5.969 12.703 0 23-10.298 23-23 0-5.954-2.256-11.384-5.969-15.469-1.469-1.475-3.147-2.744-4.969-3.781zm4.969 3.781c3.854 4.113 6.219 9.637 6.219 15.719 0 12.703-10.297 23-23 23-6.081 0-11.606-2.364-15.719-6.219 4.16 4.144 9.883 6.719 16.219 6.719 12.703 0 23-10.298 23-23 0-6.335-2.575-12.06-6.719-16.219z" opacity=".05"/>
<path d="m41.28 8.781c3.712 4.085 5.969 9.514 5.969 15.469 0 12.703-10.297 23-23 23-5.954 0-11.384-2.256-15.469-5.969 4.113 3.854 9.637 6.219 15.719 6.219 12.703 0 23-10.298 23-23 0-6.081-2.364-11.606-6.219-15.719z" opacity=".1"/>
<path d="m31.25 2.375c8.615 3.154 14.75 11.417 14.75 21.13 0 12.426-10.07 22.5-22.5 22.5-9.708 0-17.971-6.135-21.12-14.75a23 23 0 0 0 44.875-7 23 23 0 0 0-16-21.875z" opacity=".2"/>
<circle cx="24" cy="24" r="23" fill="url(#linearGradient866)"/>
<path d="m24 10v2.0488a13 13 0 0 0-1.3867 0.18164l-0.5293-1.9785-1.9316 0.51758 0.53125 1.9844a13 13 0 0 0-1.291 0.53516l-1.0273-1.7793-1.7305 1 1.0195 1.7656a13 13 0 0 0-1.1094 0.85547l-1.4453-1.4453-1.4141 1.4141 1.4531 1.4531a13 13 0 0 0-0.85156 1.1074l-1.7773-1.0254-1 1.7305 1.7754 1.0254a13 13 0 0 0-0.5332 1.293l-1.9824-0.53125-0.51758 1.9316 1.9785 0.5293a13 13 0 0 0-0.1875 1.3867h-2.043v2h2.0488a13 13 0 0 0 0.18164 1.3867l-1.9785 0.5293 0.51758 1.9316 1.9844-0.53125a13 13 0 0 0 0.53516 1.291l-1.7793 1.0273 1 1.7305 1.7656-1.0195a13 13 0 0 0 0.85547 1.1094l-1.4453 1.4453 1.4141 1.4141 1.4531-1.4531a13 13 0 0 0 1.1074 0.85156l-1.0254 1.7773 1.7305 1 1.0254-1.7754a13 13 0 0 0 1.293 0.5332l-0.53125 1.9824 1.9316 0.51758 0.5293-1.9785a13 13 0 0 0 1.3867 0.1875v2.043h2v-2.0488a13 13 0 0 0 1.3867-0.18164l0.5293 1.9785 1.9316-0.51758-0.53125-1.9844a13 13 0 0 0 1.291-0.53516l1.0273 1.7793 1.7305-1-1.0195-1.7656a13 13 0 0 0 1.1094-0.85547l1.4453 1.4453 1.4141-1.4141-1.4531-1.4531a13 13 0 0 0 0.85156-1.1074l1.7773 1.0254 1-1.7305-1.7754-1.0254a13 13 0 0 0 0.5332-1.293l1.9824 0.53125 0.51758-1.9316-1.9785-0.5293a13 13 0 0 0 0.1875-1.3867h2.043v-2h-2.0488a13 13 0 0 0-0.18164-1.3867l1.9785-0.5293-0.51758-1.9316-1.9844 0.53125a13 13 0 0 0-0.53516-1.291l1.7793-1.0273-1-1.7305-1.7656 1.0195a13 13 0 0 0-0.85547-1.1094l1.4453-1.4453-1.4141-1.4141-1.4531 1.4531a13 13 0 0 0-1.1074-0.85156l1.0254-1.7773-1.7305-1-1.0254 1.7754a13 13 0 0 0-1.293-0.5332l0.53125-1.9824-1.9316-0.51758-0.5293 1.9785a13 13 0 0 0-1.3867-0.1875v-2.043zm1 4a11 11 0 0 1 0.0957 0.0039l-0.81055 1.4043-1.6855-0.97461a2.5 2.5 0 0 1 0.19922-0.19921 11 11 0 0 1 2.2012-0.23438zm1.125 0.2207a2.5 2.5 0 0 1 0.75977 1.2227 2.5 2.5 0 0 1-0.04687 1.4375l-1.6855-0.97266zm1.3379 0.06836a11 11 0 0 1 0.89453 0.24219l-0.67578 0.18164a3.5 3.5 0 0 0-0.21875-0.42383zm-6.1875 0.37109a3.5 3.5 0 0 0-0.02344 0.05078l-0.07031-0.01953a11 11 0 0 1 0.09375-0.03125zm7.4727 0.01367a11 11 0 0 1 7.252 10.326 11 11 0 0 1-0.18945 1.9961l-0.08984 0.02344c-0.09171-0.16211-0.2051-0.31081-0.33789-0.44141l0.5332-0.92383-0.86719-0.5-0.53125 0.92188c-0.17989-0.04923-0.36624-0.07258-0.55273-0.07031l-0.2754-1.0293-0.9668 0.25781 0.27734 1.0312c-0.16211 0.09171-0.31081 0.2051-0.44141 0.33789l-0.92383-0.5332-0.5 0.86524 0.92188 0.5332c-0.04923 0.17989-0.07258 0.36429-0.07031 0.55078l-1.0312 0.27734 0.25977 0.96484 1.0293-0.27539c0.09171 0.16211 0.20509 0.31081 0.33789 0.44141l-0.5332 0.92383 0.86719 0.5 0.53125-0.92187c0.17989 0.049227 0.36624 0.072585 0.55273 0.070312l0.25 0.93164a11 11 0 0 1-1.3594 1.7168 3.5 3.5 0 0 0-0.14258-0.44531l0.89844-0.51953-0.5-0.86719-0.90039 0.51953a3.5 3.5 0 0 0-0.58008-0.58594l0.51758-0.89648-0.86719-0.5-0.51953 0.89844a3.5 3.5 0 0 0-0.79688-0.21289v-1.0391h-1v1.041a3.5 3.5 0 0 0-0.79688 0.21094l-0.46875-0.81055 0.30078 0.30078 0.70703-0.70703-0.72656-0.72656a4.5 4.5 0 0 0 0.41992-0.63867l0.95508 0.39648 0.38281-0.92383-0.95313-0.39453a4.5 4.5 0 0 0 0.14648-0.74805h1.0332v-1h-1.0312a4.5 4.5 0 0 0-0.14844-0.74805l0.95313-0.39453-0.38281-0.92383-0.95117 0.39453a4.5 4.5 0 0 0-0.42773-0.63281l0.73047-0.73047-0.70703-0.70703-0.72656 0.72656a4.5 4.5 0 0 0-0.63867-0.41992l0.39648-0.95508-0.92383-0.38281-0.0293 0.07031-0.26562-0.99414a3.5 3.5 0 0 0 0.71485-0.41015l0.73438 0.73438 0.70898-0.70898-0.73633-0.73438a3.5 3.5 0 0 0 0.41602-0.71289l1 0.26953 0.25976-0.96875-1.0039-0.26758a3.5 3.5 0 0 0 0-0.82617l1.0039-0.26758zm-8.6914 0.50195-0.0625 0.23438 1.002 0.26953a3.5 3.5 0 0 0 0 0.82422l-1.0039 0.26953 0.25976 0.96484 1.0059-0.26953a3.5 3.5 0 0 0 0.41016 0.71484l-0.73438 0.73438 0.70703 0.70898 0.73633-0.73438a3.5 3.5 0 0 0 0.71094 0.41602l-0.24805 0.92578-0.90625 0.375 0.39453 0.95117a4.5 4.5 0 0 0-0.63281 0.42773l-0.73047-0.73047-0.70703 0.70703 0.72656 0.72656a4.5 4.5 0 0 0-0.41992 0.63867l-0.95508-0.39648-0.38281 0.92383 0.95313 0.39453a4.5 4.5 0 0 0-0.14648 0.74805h-1.0332v1h1.0312a4.5 4.5 0 0 0 0.14844 0.74805l-0.95313 0.39453 0.38281 0.92383 0.95117-0.39453a4.5 4.5 0 0 0 0.42773 0.63281l-0.73047 0.73047 0.70703 0.70703 0.72656-0.72656a4.5 4.5 0 0 0 0.63867 0.41992l-0.39648 0.95508 0.92383 0.38281 0.39453-0.95313a4.5 4.5 0 0 0 0.74805 0.14648v1.0332h1v-1.0312a4.5 4.5 0 0 0 0.74805-0.14844l0.39453 0.95313 0.92383-0.38281-0.15234-0.36914 0.42188 0.73242a3.5 3.5 0 0 0-0.58594 0.58008l-0.89648-0.51758-0.5 0.86719 0.89844 0.51953a3.5 3.5 0 0 0-0.21289 0.79688h-1.0391v1h1.041a3.5 3.5 0 0 0 0.21094 0.79688l-0.89844 0.51953 0.37891 0.6582a11 11 0 0 1-0.73242 0.025391 11 11 0 0 1-11-11 11 11 0 0 1 6.0566-9.8242zm2.043 0.125 1.6855 0.97266-0.97266 1.6875a2.5 2.5 0 0 1-0.75781-1.2227 2.5 2.5 0 0 1 0.04492-1.4375zm2.5527 1.4727 1.6855 0.97461a2.5 2.5 0 0 1-1.2227 0.75781 2.5 2.5 0 0 1-1.4375-0.04492zm0.23047 2.7891 0.11719 0.4375h-1v1.0312a4.5 4.5 0 0 0-0.74805 0.14844l-0.35156-0.84961 0.88672 0.23633 0.26953-1.002a3.5 3.5 0 0 0 0.82617-2e-3zm0.11719 0.43945 0.15039 0.56445 0.95703-0.25586-0.35938 0.86914a4.5 4.5 0 0 0-0.74805-0.14648zm-1 2.0371v2.9609h-2.959a3.5 3.5 0 0 1 0.23242-0.85547 3.5 3.5 0 0 1 0.0039-0.01367 3.5 3.5 0 0 1 0.78516-1.1426 3.5 3.5 0 0 1 1.9375-0.94922zm1 2e-3a3.5 3.5 0 0 1 0.85547 0.23242 3.5 3.5 0 0 1 0.0078 2e-3l0.0059 2e-3a3.5 3.5 0 0 1 1.1426 0.78502 3.5 3.5 0 0 1 0.94922 1.9375h-2.9609zm-3.9609 3.9589h2.9609v2.959a3.5 3.5 0 0 1-0.85547-0.23242 3.5 3.5 0 0 1-0.01367-0.0039 3.5 3.5 0 0 1-1.1426-0.78516 3.5 3.5 0 0 1-0.94922-1.9375zm3.9609 0h2.959a3.5 3.5 0 0 1-0.23242 0.85547 3.5 3.5 0 0 1-2e-3 0.0078l-2e-3 0.0059a3.5 3.5 0 0 1-0.78506 1.1426 3.5 3.5 0 0 1-1.9375 0.94922zm9 1a1 1 0 0 1 1 1 1 1 0 0 1-1 1 1 1 0 0 1-1-1 1 1 0 0 1 1-1zm-6.6953 2.0117 0.35547 0.35547-0.82226 0.47461-0.16602-0.40234a4.5 4.5 0 0 0 0.63281-0.42773zm2.1953 1.9883a2.5 2.5 0 0 1 1.377 0.41602l-1.377 1.377-1.377-1.377a2.5 2.5 0 0 1 1.377-0.41602zm-2.084 1.123 1.377 1.377-1.377 1.377a2.5 2.5 0 0 1-0.41602-1.377 2.5 2.5 0 0 1 0.41602-1.377zm4.168 0a2.5 2.5 0 0 1 0.41406 1.3535 11 11 0 0 1-1.043 0.77148l-0.74805-0.74805zm-2.084 2.084 0.55664 0.55664a11 11 0 0 1-1.8672 0.75391zm-2.7461 1.457a3.5 3.5 0 0 0 0.14453 0.16992 11 11 0 0 1-0.56055 0.07031z" fill-opacity=".95686" opacity=".1" style="paint-order:normal"/>
<path d="m23 19v1.0312a4.5 4.5 0 0 0-0.74805 0.14844l-0.39453-0.95313-0.92383 0.38281 0.39453 0.95117a4.5 4.5 0 0 0-0.63281 0.42773l-0.73047-0.73047-0.70703 0.70703 0.72656 0.72656a4.5 4.5 0 0 0-0.41992 0.63867l-0.95508-0.39648-0.38281 0.92383 0.95313 0.39453a4.5 4.5 0 0 0-0.14648 0.74805h-1.0332v1h1.0312a4.5 4.5 0 0 0 0.14844 0.74805l-0.95313 0.39453 0.38281 0.92383 0.95117-0.39453a4.5 4.5 0 0 0 0.42773 0.63281l-0.73047 0.73047 0.70703 0.70703 0.72656-0.72656a4.5 4.5 0 0 0 0.63867 0.41992l-0.39648 0.95508 0.92383 0.38281 0.39453-0.95313a4.5 4.5 0 0 0 0.74805 0.14648v1.0332h1v-1.0312a4.5 4.5 0 0 0 0.74805-0.14844l0.39453 0.95313 0.92383-0.38281-0.39453-0.95117a4.5 4.5 0 0 0 0.63281-0.42773l0.73047 0.73047 0.70703-0.70703-0.72656-0.72656a4.5 4.5 0 0 0 0.41992-0.63867l0.95508 0.39648 0.38281-0.92383-0.95313-0.39453a4.5 4.5 0 0 0 0.14648-0.74805h1.0332v-1h-1.0312a4.5 4.5 0 0 0-0.14844-0.74805l0.95313-0.39453-0.38281-0.92383-0.95117 0.39453a4.5 4.5 0 0 0-0.42773-0.63281l0.73047-0.73047-0.70703-0.70703-0.72656 0.72656a4.5 4.5 0 0 0-0.63867-0.41992l0.39648-0.95508-0.92383-0.38281-0.39453 0.95313a4.5 4.5 0 0 0-0.74805-0.14648v-1.0332zm0 2.0391v2.9609h-2.959a3.5 3.5 0 0 1 0.23242-0.85547 3.5 3.5 0 0 1 0.0039-0.01367 3.5 3.5 0 0 1 0.78516-1.1426 3.5 3.5 0 0 1 1.9375-0.94922zm1 2e-3a3.5 3.5 0 0 1 0.85547 0.23242 3.5 3.5 0 0 1 0.0078 2e-3l0.0059 2e-3a3.5 3.5 0 0 1 1.1426 0.78502 3.5 3.5 0 0 1 0.94922 1.9375h-2.9609zm-3.9609 3.9589h2.9609v2.959a3.5 3.5 0 0 1-0.85547-0.23242 3.5 3.5 0 0 1-0.01367-0.0039 3.5 3.5 0 0 1-1.1426-0.78516 3.5 3.5 0 0 1-0.94922-1.9375zm3.9609 0h2.959a3.5 3.5 0 0 1-0.23242 0.85547 3.5 3.5 0 0 1-2e-3 0.0078l-2e-3 0.0059a3.5 3.5 0 0 1-0.78506 1.1426 3.5 3.5 0 0 1-1.9375 0.94922z" fill="#4d4d4d" style="paint-order:normal"/>
<path d="m40.03 7.531c3.712 4.084 5.969 9.514 5.969 15.469 0 12.703-10.297 23-23 23-5.954 0-11.384-2.256-15.469-5.969 4.178 4.291 10.01 6.969 16.469 6.969 12.703 0 23-10.298 23-23 0-6.462-2.677-12.291-6.969-16.469z" opacity=".1"/>
<g fill="#4d4d4d">
<path d="m28 28v1.041a3.5 3.5 0 0 0-0.79688 0.21094l-0.51953-0.89844-0.86719 0.5 0.51953 0.90039a3.5 3.5 0 0 0-0.58594 0.58008l-0.89648-0.51758-0.5 0.86719 0.89844 0.51953a3.5 3.5 0 0 0-0.21289 0.79688h-1.0391v1h1.041a3.5 3.5 0 0 0 0.21094 0.79688l-0.89844 0.51953 0.5 0.86719 0.90039-0.51953a3.5 3.5 0 0 0 0.58008 0.58594l-0.33594 0.58203a12 12 0 0 0 2.8145-0.85547 2.5 2.5 0 0 1-0.3125 0.023438 2.5 2.5 0 0 1-1.377-0.41602l1.377-1.377 1.2891 1.2891a12 12 0 0 0 3.1387-2.4961h-0.96875a3.5 3.5 0 0 0-0.21094-0.79688l0.89844-0.51953-0.5-0.86719-0.90039 0.51953a3.5 3.5 0 0 0-0.58008-0.58594l0.51758-0.89648-0.86719-0.5-0.51953 0.89844a3.5 3.5 0 0 0-0.79688-0.21289v-1.0391h-1zm0.5 2a2.5 2.5 0 0 1 1.377 0.41602l-1.377 1.377-1.377-1.377a2.5 2.5 0 0 1 1.377-0.41602zm-2.084 1.123 1.377 1.377-1.377 1.377a2.5 2.5 0 0 1-0.41602-1.377 2.5 2.5 0 0 1 0.41602-1.377zm4.168 0a2.5 2.5 0 0 1 0.41602 1.377 2.5 2.5 0 0 1-0.41602 1.377l-1.377-1.377 1.377-1.377z" style="paint-order:normal"/>
<path d="m32.689 23.977-0.9668 0.25781 0.27734 1.0312c-0.16211 0.09171-0.31081 0.2051-0.44141 0.33789l-0.92383-0.5332-0.5 0.86524 0.92188 0.5332c-0.04923 0.17989-0.072583 0.36429-0.070313 0.55078l-1.0312 0.27734 0.25977 0.96484 1.0293-0.27539c0.09171 0.16211 0.20509 0.31081 0.33789 0.44141l-0.5332 0.92383 0.86719 0.5 0.53125-0.92187c0.17989 0.049227 0.36624 0.072585 0.55273 0.070312l0.27539 1.0293 0.9668-0.25781-0.27539-1.0312c0.16211-0.09171 0.30886-0.20509 0.43945-0.33789l0.92383 0.5332 0.5-0.86524-0.92188-0.5332c0.04923-0.17989 0.074536-0.36429 0.072266-0.55078l1.0293-0.27734-0.25977-0.96484-1.0293 0.27539c-0.091708-0.16211-0.2051-0.31081-0.33789-0.44141l0.5332-0.92383-0.86719-0.5-0.53125 0.92188c-0.17989-0.04923-0.36624-0.072583-0.55273-0.070313l-0.27539-1.0293zm0.31055 2.0234a1 1 0 0 1 1 1 1 1 0 0 1-1 1 1 1 0 0 1-1-1 1 1 0 0 1 1-1z" style="paint-order:normal"/>
<path d="m24 12a12 12 0 0 0-3.7227 0.60742l0.39062 0.39062a3.5 3.5 0 0 0-0.41602 0.71289l-1-0.26758-0.25781 0.9668 1.002 0.26953a3.5 3.5 0 0 0 0 0.82422l-1.0039 0.26953 0.25976 0.96484 1.0059-0.26953a3.5 3.5 0 0 0 0.41016 0.71484l-0.73438 0.73438 0.70703 0.70898 0.73633-0.73438a3.5 3.5 0 0 0 0.71094 0.41602l-0.26758 1 0.9668 0.25781 0.26953-1.002a3.5 3.5 0 0 0 0.82617-0.001953l0.26758 1.0039 0.9668-0.25781-0.26953-1.0059a3.5 3.5 0 0 0 0.71484-0.41016l0.73438 0.73438 0.70898-0.70898-0.73633-0.73438a3.5 3.5 0 0 0 0.41602-0.71289l1 0.26953 0.25976-0.96875-1.0039-0.26758a3.5 3.5 0 0 0 0-0.82617l1.0039-0.26758-0.25976-0.9668-1.0039 0.26953a3.5 3.5 0 0 0-0.41016-0.71484l0.62695-0.62891a12 12 0 0 0-1.1855-0.23242l-0.15234 0.15234a3.5 3.5 0 0 0-0.34375-0.22656 12 12 0 0 0-1.2168-0.0625zm-0.43555 0.59375a2.5 2.5 0 0 1 0.69531 0.12695l-0.97461 1.6875-1.6855-0.97461a2.5 2.5 0 0 1 1.2227-0.75781 2.5 2.5 0 0 1 0.74219-0.082031zm1.5605 0.62695a2.5 2.5 0 0 1 0.75977 1.2227 2.5 2.5 0 0 1-0.046875 1.4375l-1.6855-0.97266 0.97266-1.6875zm-4.0254 1.0801 1.6855 0.97266-0.97266 1.6875a2.5 2.5 0 0 1-0.75781-1.2227 2.5 2.5 0 0 1 0.044921-1.4375zm2.5527 1.4727 1.6855 0.97461a2.5 2.5 0 0 1-1.2227 0.75781 2.5 2.5 0 0 1-1.4375-0.044921l0.97461-1.6875z" style="paint-order:normal"/>
<path d="m23 9v2.0488a13 13 0 0 0-1.3867 0.18164l-0.5293-1.9785-1.9316 0.51758 0.53125 1.9844a13 13 0 0 0-1.291 0.53516l-1.0273-1.7793-1.7305 1 1.0195 1.7656a13 13 0 0 0-1.1094 0.85547l-1.4453-1.4453-1.4141 1.4141 1.4531 1.4531a13 13 0 0 0-0.85156 1.1074l-1.7773-1.0254-1 1.7305 1.7754 1.0254a13 13 0 0 0-0.5332 1.293l-1.9824-0.53125-0.51758 1.9316 1.9785 0.5293a13 13 0 0 0-0.1875 1.3867h-2.043v2h2.0488a13 13 0 0 0 0.18164 1.3867l-1.9785 0.5293 0.51758 1.9316 1.9844-0.53125a13 13 0 0 0 0.53516 1.291l-1.7793 1.0273 1 1.7305 1.7656-1.0195a13 13 0 0 0 0.85547 1.1094l-1.4453 1.4453 1.4141 1.4141 1.4531-1.4531a13 13 0 0 0 1.1074 0.85156l-1.0254 1.7773 1.7305 1 1.0254-1.7754a13 13 0 0 0 1.293 0.5332l-0.53125 1.9824 1.9316 0.51758 0.5293-1.9785a13 13 0 0 0 1.3867 0.1875v2.043h2v-2.0488a13 13 0 0 0 1.3867-0.18164l0.5293 1.9785 1.9316-0.51758-0.53125-1.9844a13 13 0 0 0 1.291-0.53516l1.0273 1.7793 1.7305-1-1.0195-1.7656a13 13 0 0 0 1.1094-0.85547l1.4453 1.4453 1.4141-1.4141-1.4531-1.4531a13 13 0 0 0 0.85156-1.1074l1.7773 1.0254 1-1.7305-1.7754-1.0254a13 13 0 0 0 0.5332-1.293l1.9824 0.53125 0.51758-1.9316-1.9785-0.5293a13 13 0 0 0 0.1875-1.3867h2.043v-2h-2.0488a13 13 0 0 0-0.18164-1.3867l1.9785-0.5293-0.51758-1.9316-1.9844 0.53125a13 13 0 0 0-0.53516-1.291l1.7793-1.0273-1-1.7305-1.7656 1.0195a13 13 0 0 0-0.85547-1.1094l1.4453-1.4453-1.4141-1.4141-1.4531 1.4531a13 13 0 0 0-1.1074-0.85156l1.0254-1.7773-1.7305-1-1.0254 1.7754a13 13 0 0 0-1.293-0.5332l0.53125-1.9824-1.9316-0.51758-0.5293 1.9785a13 13 0 0 0-1.3867-0.1875v-2.043h-2zm1 4a11 11 0 0 1 11 11 11 11 0 0 1-11 11 11 11 0 0 1-11-11 11 11 0 0 1 11-11z" style="paint-order:normal"/>
</g>
<path d="m24 13a11 11 0 0 0-11 11 11 11 0 0 0 3.7773 8.2871 11 11 0 0 1-2.7773-7.2871 11 11 0 0 1 11-11 11 11 0 0 1 7.2227 2.7129 11 11 0 0 0-8.2227-3.7129z" opacity=".1" style="paint-order:normal"/>
<path d="m24.098 13.002-0.64648 1.1191a11 11 0 0 1 1.2188-0.10938l0.45508-0.79102a2.5 2.5 0 0 1 0.61133 0.81641 11 11 0 0 1 2.1973 0.375l0.011718-0.001953-0.20117-0.74609a11 11 0 0 0-0.4082-0.12695l-0.6543 0.17578a3.5 3.5 0 0 0-0.2168-0.41992 11 11 0 0 0-2.3672-0.29102zm-2.2832 0.2168a11 11 0 0 0-1.543 0.44727 3.5 3.5 0 0 0-0.019531 0.044922l-0.058594-0.015626a11 11 0 0 0-1.1406 0.49414l-0.058593 0.2207 1.002 0.26953a3.5 3.5 0 0 0-0.017578 0.53516 11 11 0 0 1 1.0156-0.45703 2.5 2.5 0 0 1 0.10547-0.45703l0.45898 0.26562a11 11 0 0 1 1.375-0.36133l-1.334-0.77148a2.5 2.5 0 0 1 0.21875-0.21484 11 11 0 0 0-0.003906 0zm-2.7852 2.5449-0.037109 0.009766 0.003906 0.013671a11 11 0 0 1 0.033203-0.023437z" opacity=".1" style="paint-order:normal"/>
</svg>
