<svg enable-background="new" version="1.1" viewBox="0 0 16 16" xmlns="http://www.w3.org/2000/svg">
<g fill="#bebebe">
<path d="m8 0.77734c-2.942 0-5.688 1.0164-8 2.7754l8 11.447 2-2.8613v-0.79297c0-0.53188 0.42906-0.96094 0.96094-0.96094v-0.93164c0-1.0799 0.85812-1.957 1.9219-1.957 0.1162 0 0.22753 0.013343 0.33789 0.033203l2.7793-3.9766c-2.312-1.759-5.058-2.7754-8-2.7754z" opacity=".4"/>
<path d="m10 12.138c-0.578-0.44-1.264-0.694-2-0.694s-1.422 0.254-2 0.694l2 2.862z"/>
<path d="m13.497 8.496c-0.922 0-1.665 0.761-1.665 1.697v0.806c-0.461 0-0.833 0.372-0.833 0.833v2.335c0 0.461 0.372 0.833 0.833 0.833h3.335c0.461 0 0.833-0.372 0.833-0.833v-2.335c0-0.461-0.372-0.833-0.833-0.833v-0.806c0-0.936-0.743-1.697-1.67-1.697zm0 0.837c0.466 0 0.837 0.367 0.837 0.833v0.833h-1.67v-0.833c0-0.466 0.372-0.833 0.833-0.833z"/>
</g>
</svg>
