<svg enable-background="new" version="1.1" viewBox="0 0 16 16" xmlns="http://www.w3.org/2000/svg">
<g fill="#bebebe">
<path d="m8 0.77661c-2.942 0-5.688 1.0164-8 2.7754l8 11.447 2-2.8613v-0.79297c0-0.26594 0.1075-0.50594 0.28125-0.67969 0.17375-0.17375 0.41375-0.28125 0.67969-0.28125v-0.93164c0-0.53996 0.215-1.0285 0.5625-1.3828 0.3475-0.35427 0.8275-0.57422 1.3594-0.57422 0.1162 0 0.22753 0.013343 0.33789 0.033203l2.7793-3.9766c-2.312-1.759-5.058-2.7754-8-2.7754z" opacity=".4"/>
<path d="m8 7.8887c-1.471 0-2.844 0.50672-4 1.3867l4 5.7246 2-2.8633v-0.79102c0-0.26594 0.1075-0.50594 0.28125-0.67969 0.17375-0.17375 0.41375-0.28125 0.67969-0.28125v-0.93164c-1e-6 -0.26781 0.052727-0.52345 0.14844-0.75586-0.94695-0.51938-1.9999-0.80859-3.1094-0.80859z"/>
<path d="m13.497 8.496c-0.922 0-1.665 0.761-1.665 1.697v0.806c-0.461 0-0.833 0.372-0.833 0.833v2.335c0 0.461 0.372 0.833 0.833 0.833h3.335c0.461 0 0.833-0.372 0.833-0.833v-2.335c0-0.461-0.372-0.833-0.833-0.833v-0.806c0-0.936-0.743-1.697-1.67-1.697zm0 0.837c0.466 0 0.837 0.367 0.837 0.833v0.833h-1.67v-0.833c0-0.466 0.372-0.833 0.833-0.833z"/>
</g>
</svg>
