<svg version="1.1" viewBox="0 0 16 16" xmlns="http://www.w3.org/2000/svg">
<g transform="matrix(-1 0 0 1 16 0)" fill="#839496">
<path d="m1 1h14l-3.8887 5h3.8887l-7 9-7-9h3.8887l-3.8887-5z" fill="#839496"/>
</g>
</svg>
