<svg version="1.1" viewBox="0 0 16 16" xmlns="http://www.w3.org/2000/svg">
<path d="m7.9998 0c-2.761 0-5 2.239-5 5 0 0.345 0.027 0.675 0.094 1 0.375 2.84 3.933 4.926 4.938 8.969 0.985-3.985 4.998-6.918 5-9.969h-0.031c0-2.761-2.239-5-5-5zm0 2c1.657 0 3 1.343 3 3s-1.343 3-3 3-3-1.343-3-3 1.343-3 3-3z" color="#000000" fill="#f9b13a"/>
</svg>
