<svg version="1.1" viewBox="0 0 16 16" xmlns="http://www.w3.org/2000/svg">
<path d="m14.581 0c-0.122 0-0.238 0.046-0.324 0.133l-1.649 1.649h-1.479c-0.122-1e-3 -0.246 0.047-0.332 0.133l-2.152 2.152c-0.175 0.171-0.175 0.494 0 0.665l2.634 2.634c0.088 0.088 0.208 0.136 0.332 0.133 0.119-1e-3 0.24-0.049 0.324-0.133l2.16-2.16c0.086-0.086 0.134-0.202 0.133-0.324v-1.487l1.641-1.64c0.175-0.171 0.175-0.494 0-0.665l-0.956-0.955c-0.086-0.087-0.21-0.133-0.332-0.133" fill="#839496"/>
<path d="m4.389 8.504c-0.119 1e-3 -0.24 0.057-0.324 0.141l-2.16 2.152c-0.086 0.086-0.134 0.211-0.133 0.332v1.479l-1.641 1.649c-0.175 0.171-0.175 0.485 0 0.656l0.956 0.955c0.171 0.175 0.485 0.175 0.656 0l1.649-1.64h1.479c0.122 1e-3 0.246-0.047 0.332-0.133l2.152-2.16c0.175-0.171 0.175-0.485 0-0.656l-2.634-2.634c-0.088-0.088-0.208-0.144-0.332-0.141" fill="#839496"/>
</svg>
