<svg version="1.1" viewBox="0 0 16 16" xmlns="http://www.w3.org/2000/svg">
<path d="m3.662 2.282c-0.629 2.263-0.644 5.397 0.479 6.942 0.472 0.733 1.116 1.697 0.611 2.575-0.933 1.369-2.489 2.107-3.906 2.853-0.481 0.05-0.307 0.502-0.34 0.835-1e-3 0.265-0.079 0.611 0.306 0.487h6.249 1.087 6.249c0.384 0.124 0.306-0.222 0.306-0.487-0.032-0.333 0.142-0.785-0.34-0.835-1.417-0.746-2.972-1.484-3.906-2.853-0.505-0.877 0.139-1.842 0.611-2.575 1.186-1.682 1.341-5.343 0.475-6.993-0.782-1.431-1.571-2.176-3.94-2.231-2.372 0.097-3.158 0.8-3.943 2.282z" color="#bebebe" fill="#839496"/>
<path d="m6 11h10v3h-10z" fill="#dc322f"/>
</svg>
