<svg width="16" height="16" version="1.1" viewBox="0 0 16 16" xmlns="http://www.w3.org/2000/svg">
<path d="m16 7-14-7v7z" fill="#839496"/>
<path d="m8 5-4-2v2z" fill="#fff" fill-opacity=".9"/>
<path d="m16 9-14 7v-7z" fill="#839496"/>
<path d="m8 11-4 2v-2z" fill="#fff" fill-opacity=".9"/>
<path d="m1 0v7h-1v-7z" fill="#839496"/>
<path d="m1 9v7h-1v-7z" fill="#839496"/>
</svg>
