<svg width="16" height="16" version="1.1" viewBox="0 0 16 16" xmlns="http://www.w3.org/2000/svg">
<path d="m16 8.0012a8 8 0 0 1-16 0 8 8 0 1 1 16 0z" fill="#268bd2" fill-rule="evenodd"/>
<g transform="translate(-2.0036)" fill="#fff" fill-opacity=".9">
<path d="m8.0039 3c-0.30606 0-0.59646 0.13046-0.8125 0.34375l-3.8438 3.7188c-0.21304 0.2016-0.33475 0.48908-0.34375 0.78125-0.015003 0.46455 0.24942 0.88135 0.6875 1.0625 0.43808 0.18115 0.95119 0.083075 1.2812-0.25l2.0312-1.9688v6.3125h2v-3.4453c-1.585e-4 -0.0021128-0.0039062-0.0017515-0.0039062-0.0039063v-6.0293l-0.18359-0.17773c-0.21604-0.21328-0.50644-0.34375-0.8125-0.34375z"/>
<path d="m12.003 13c0.30606 0 0.59646-0.13046 0.8125-0.34375l3.8438-3.7188c0.21304-0.2016 0.33475-0.48908 0.34375-0.78125 0.015-0.46455-0.24942-0.88135-0.6875-1.0625-0.43808-0.18115-0.95119-0.083075-1.2812 0.25l-2.0312 1.9688v-6.3125h-2v3.4453c1.58e-4 0.00211 0.0039 0.00175 0.0039 0.00391v6.0293l0.1836 0.17773c0.21604 0.21328 0.50644 0.34375 0.8125 0.34375z"/>
</g>
</svg>
