<svg version="1.1" viewBox="0 0 16 16" xmlns="http://www.w3.org/2000/svg">
<g fill="#839496">
<rect x="6" y="3" width="8" height="2"/>
<rect x="6" y="7" width="8" height="2"/>
<rect x="6" y="11" width="8" height="2"/>
<rect x="2" y="3" width="2" height="2"/>
<rect x="2" y="7" width="2" height="2"/>
<rect x="2" y="11" width="2" height="2"/>
</g>
</svg>
