<svg version="1.1" viewBox="0 0 16 16" xmlns="http://www.w3.org/2000/svg">
<path d="m13 3v10c0 3 0 3-3 3h-4c-3 0-3 0-3-3 0-1.125 0.01-1.438 0.01-2.562-0.321 0.376-0.795 0.725-1.315 0.529-0.755-0.208-0.943-1.298-0.325-1.765 0.878-0.871 1.738-1.354 2.639-2.202 0.95 0.898 1.864 1.429 2.787 2.354 0.562 0.608 0.058 1.734-0.78 1.686-0.435 0.02-0.731-0.32-1.01-0.603 0.012 1.256-0.054 1.308-0.01 2.562 0 1 0 1 1 1h4c1 0 1 0 1-1v-10c0-1 0-1-1-1h-4c-1 0-1 0-1 1v1c0 1 0 1-1 1s-1 0-1-1v-1c0-3 0-3 3-3h4c3 0 3 0 3 3" color="#bebebe" fill="#839496"/>
</svg>
