<svg width="16" height="16" version="1.1" viewBox="0 0 16 16" xmlns="http://www.w3.org/2000/svg">
<defs>
<style id="current-color-scheme" type="text/css">.ColorScheme-Text { color:#444444; } .ColorScheme-Highlight { color:#5294e2; }</style>
</defs>
<rect x="1" y=".99996" width="14" height="14" rx="2.154" fill="#839496"/>
<g fill="#fff">
<g fill-opacity=".9">
<path d="m3 3v4h1v-3h3v-1z" color="#000000"/>
<path d="m3 9v4h4v-4h-3z" color="#000000"/>
<path d="m12 9v3h-3v1h4v-4z" color="#000000"/>
</g>
<path d="m14 4.5179-3-2.5179v2h-2v1h2v2z" color="#444444" fill-opacity=".89804"/>
</g>
</svg>
