<svg width="20" height="20" version="1.1" viewBox="0 0 20 20" xmlns="http://www.w3.org/2000/svg">
<g transform="translate(2.0002 -29.996)" opacity=".4">
<path d="m14.826 33.17c-0.457-0.457-1.69 0-2.907 1.217l-1.789 1.789-7.69-1.623c-0.553-0.104-0.713-0.108-0.992 0.167-0.655 0.655-0.655 0.655 0.422 1.279l5.589 2.848-3.078 3.078-2.431-0.466c-0.285-0.06-0.28-0.081-0.458 0.097l-0.176 0.176c-0.269 0.269 0.134 0.587 0.134 0.587l2.504 1.723 1.723 2.504s0.318 0.403 0.587 0.134l0.176-0.176c0.178-0.178 0.157-0.173 0.097-0.458l-0.466-2.431 3.078-3.078 2.848 5.589c0.624 1.077 0.624 1.076 1.279 0.422 0.274-0.279 0.271-0.438 0.167-0.992l-1.623-7.69 1.789-1.789c1.217-1.217 1.674-2.45 1.217-2.907z" style=""/>
</g>
</svg>
