<svg width="20" height="20" version="1.1" viewBox="0 0 20 20" xmlns="http://www.w3.org/2000/svg">
<path d="m8 4-4 4v4l4 4v-5l1-1-1-1z"/>
<path d="m3.3 7c-1.083 0-1.3 1.163-1.3 2.4v1.2c0 1.237 0.243 2.4 1.3 2.4h1.7v-6"/>
</svg>
