<svg width="20" height="20" version="1.1" viewBox="0 0 20 20" xmlns="http://www.w3.org/2000/svg">
<g fill="#fff">
<path d="m8 4-4 4v4l4 4v-5l1-1-1-1z"/>
<path d="m3.3 7c-1.083 0-1.3 1.163-1.3 2.4v1.2c0 1.237 0.243 2.4 1.3 2.4h1.7v-6"/>
<path d="M 11.194,6 10,7.194 12.806,10 10,12.806 11.194,14 14,11.194 16.806,14 18,12.806 15.194,10 18,7.194 16.806,6 14,8.806" color="#000000"/>
</g>
</svg>
