<svg width="20" height="20" version="1.1" viewBox="0 0 20 20" xmlns="http://www.w3.org/2000/svg">
<path d="m7 2v2h-3v14h12v-14h-3v-2z" fill="#fff" opacity=".4"/>
<path d="m4 16.4v1.6h12v-1.6z" fill="#ff8000"/>
</svg>
