<svg width="20" height="20" version="1.1" viewBox="0 0 20 20" xmlns="http://www.w3.org/2000/svg">
<path d="m7 2v2h-3v14h12v-14h-3v-2zm5 3-1 5h3l-6 7 1-5h-3z" fill="#fff" opacity=".4"/>
<path d="m4 6.801v11.199h12v-11.199h-4.359l-0.641 3.199h3l-6 7 1-5h-3l4.457-5.199z" fill="#fff"/>
</svg>
