<svg width="20" height="20" version="1.1" viewBox="0 0 20 20" xmlns="http://www.w3.org/2000/svg">
<path d="m7 2v2h-3v14h12v-14h-3v-2z" opacity=".4"/>
<path d="m4 14.8v3.2h12v-3.2z" fill="#ff8000"/>
</svg>
