<svg width="20" height="20" version="1.1" viewBox="0 0 20 20" xmlns="http://www.w3.org/2000/svg">
<path d="m10 2a8 8 0 0 0-8 8 8 8 0 0 0 8 8 8 8 0 0 0 8-8 8 8 0 0 0-8-8zm-1 1 6 4.25-3.8223 2.75 3.8223 2.75-6 4.25v-5.4648l-2.8848 2.0508-1.0508-0.78711 3.9355-2.7988-3.9355-2.7988 1.0508-0.78711 2.8848 2.0508v-5.4648zm1 1.9355v4.6289l3.2695-2.3145-3.2695-2.3145zm0 5.5v4.6289l3.2695-2.3145-3.2695-2.3145z" fill="#fff" opacity=".4" style="paint-order:markers stroke fill"/>
</svg>
