<svg width="20" height="20" version="1.1" viewBox="0 0 20 20" xmlns="http://www.w3.org/2000/svg">
<g transform="matrix(.5 0 0 .5 .083055 -498.51)" fill="#bebebe">
<path d="m15.843 1001v18.736c-1.396-0.676-3.301-0.782-5.158-0.285-3.31 0.887-5.514 3.395-4.922 5.601s3.753 3.275 7.06 2.389c2.867-0.769 4.968-2.784 5.01-4.806h4e-3v-13.254l13 1.734v13.869c-1.396-0.676-3.301-0.782-5.158-0.285-3.31 0.887-5.514 3.395-4.922 5.601s3.753 3.275 7.06 2.389c2.868-0.769 4.97-2.785 5.01-4.808h4e-3v-24.605zm2 4.621 13 1.734v1.76l-13-1.734z" fill="#000"/>
</g>
</svg>
