<svg width="20" height="20" version="1.1" viewBox="0 0 20 20" xmlns="http://www.w3.org/2000/svg">
<path d="m4 3c-1.203 0-2 0.797-2 2v10c0 1.202 0.795 2 2 2h12c1.2 0 2-0.802 2-2v-7h-2v3h-2v2h-1v2h-6v-2h-1v-2h-2v-4c0-1.797 0-2 1-2h7v-2z" color="#bebebe" fill="#fff"/>
<path d="m13 2h1.5l1 1 1-1h1.5v1.5l-1 1 1 1v1.5h-1.5l-1-1-1 1h-1.5v-1.5l1-1-1-1z" color="#bebebe" fill="#fff"/>
</svg>
