<svg width="20" height="20" enable-background="new" version="1.1" viewBox="0 0 20 20" xmlns="http://www.w3.org/2000/svg">
<g fill="#fff">
<path d="m10 2.7772c-2.942 0-5.688 1.0164-8 2.7754l8 11.447 2-2.8613v-0.79297c0-0.26594 0.1075-0.50594 0.28125-0.67969s0.41375-0.28125 0.67969-0.28125v-0.93164c0-0.53996 0.215-1.0285 0.5625-1.3828 0.3475-0.35427 0.8275-0.57422 1.3594-0.57422 0.1162 0 0.22753 0.013343 0.33789 0.033203l2.7793-3.9766c-2.312-1.759-5.058-2.7754-8-2.7754z" opacity=".4"/>
<path d="m16 8.414c-0.867-0.66-1.8149-1.1799-2.8223-1.5352-1.0074-0.35525-2.0742-0.54688-3.1777-0.54688s-2.1704 0.19163-3.1777 0.54688c-1.0074 0.35525-1.9553 0.87516-2.8223 1.5352l6 8.5859 2-2.8613v-0.79297c0-0.53188 0.42906-0.96094 0.96094-0.96094v-0.93164c0-1.0799 0.85812-1.957 1.9219-1.957 0.1162 0 0.22753 0.013343 0.33789 0.033203z"/>
<path d="m15.497 10.496c-0.922 0-1.665 0.761-1.665 1.697v0.806c-0.461 0-0.833 0.372-0.833 0.833v2.335c0 0.461 0.372 0.833 0.833 0.833h3.335c0.461 0 0.833-0.372 0.833-0.833v-2.335c0-0.461-0.372-0.833-0.833-0.833v-0.806c0-0.936-0.743-1.697-1.67-1.697zm0 0.837c0.466 0 0.837 0.367 0.837 0.833v0.833h-1.67v-0.833c0-0.466 0.372-0.833 0.833-0.833z"/>
</g>
</svg>
